<?xml version="1.0" encoding="UTF-8"?>
<svg width="1483px" height="685px" viewBox="0 0 1483 685" version="1.1" xmlns="http://www.w3.org/2000/svg" xmlns:xlink="http://www.w3.org/1999/xlink">
    <!-- Generator: Sketch 52.5 (67469) - http://www.bohemiancoding.com/sketch -->
    <title>logo</title>
    <desc>Created with Sketch.</desc>
    <g id="Pages" stroke="none" stroke-width="1" fill="none" fill-rule="evenodd" opacity="0.0495489211">
        <g id="shatte_2scr" transform="translate(-203.000000, -198.000000)" fill="#585858">
            <g id="stripes+girl" transform="translate(85.000000, 105.000000)">
                <path d="M1157.91448,320.622606 C1134.15337,322.656924 1100.63017,377.006467 1083.89285,426.553847 C1086.07928,426.490274 1088.36768,426.37291 1090.74346,426.172412 C1110.05402,424.519529 1130.65443,410.600425 1147.30922,387.976788 C1161.51053,368.694778 1170.59938,345.494099 1169.42605,331.558695 C1168.50033,320.554143 1161.67885,320.554143 1159.43738,320.554143 C1158.94701,320.554143 1158.4356,320.578594 1157.91448,320.622606 Z M1089.72712,443.214715 C1085.84785,443.542358 1082.18383,443.825989 1078.84025,443.59126 C1074.42206,460.362973 1072.57225,476.1974 1073.61287,488.532083 C1075.58083,511.850126 1088.22202,511.921849 1092.44277,511.921849 C1093.21959,511.928369 1094.04497,511.884358 1094.89138,511.817525 C1118.50037,509.792988 1158.03748,488.792893 1189.04572,447.464288 C1189.07808,447.426797 1191.92968,443.59289 1200.21256,430.893073 C1200.92142,429.807451 1201.60114,428.72835 1202.2582,427.69652 C1206.46762,421.070316 1209.50532,416.282823 1214.14685,416.282823 C1214.83142,416.282823 1215.50629,416.388777 1216.15041,416.618616 C1217.72509,417.166317 1218.92594,418.266609 1219.5393,419.740185 C1220.78546,422.7395 1219.46,425.722515 1216.09053,432.826327 C1209.17032,447.421907 1198.43882,461.368721 1197.98567,461.953914 C1170.47314,498.392331 1126.6198,525.893115 1091.36331,528.910361 C1089.5847,529.063586 1087.87083,528.973933 1086.19904,528.973933 L1086.19742,528.973933 C1060.59945,528.973933 1045.04192,511.817525 1042.39425,480.37525 C1039.67213,448.158695 1051.19178,406.264459 1072.44602,370.779628 C1096.79784,330.13239 1128.6185,306.168841 1162.05917,303.308082 C1164.44952,303.105954 1166.76704,303 1168.94539,303 C1195.47394,303 1200.73045,318.38616 1201.50403,327.556891 C1203.08843,346.30587 1189.80797,373.404029 1166.85282,398.280413 C1142.80202,424.341852 1113.96889,441.142906 1089.72712,443.214715 Z M1454.36845,494.063853 C1515.96141,541.01814 1583.68955,608.18432 1565.96498,711.44469 C1565.44811,714.451445 1564.91319,717.645302 1561.43129,719.644334 C1559.83637,720.558506 1558.13152,721 1556.21171,721 C1553.89154,721 1551.54839,720.359916 1549.07069,719.683724 C1548.28964,719.468721 1547.4889,719.247154 1546.66683,719.041999 C1476.00811,701.388802 1447.69999,643.994575 1432.54829,602.362835 C1431.98384,600.824992 1431.93789,599.433219 1432.41046,598.446832 C1432.71402,597.811672 1433.21448,597.361972 1433.86426,597.14861 C1434.14321,597.055059 1434.43364,597.007463 1434.71259,597.007463 C1436.56348,597.007463 1437.55128,598.9589 1438.19942,600.247275 C1460.15084,643.528463 1486.41445,686.182696 1544.12678,691.433029 C1547.38717,622.468048 1512.26948,557.158112 1442.50667,502.508042 C1438.59979,499.442202 1436.63403,497.904359 1436.07942,493.878393 C1435.82345,491.989323 1436.38462,488.134046 1440.13071,485.645924 C1513.59693,436.838675 1587.05168,375.710623 1575.74615,292.071299 C1567.56646,294.841715 1558.74684,297.393846 1549.4366,300.083842 C1504.1144,313.174386 1447.70984,329.471917 1426.63792,387.017138 C1425.51721,390.069848 1421.76948,389.270563 1420.97531,388.707617 C1418.76999,387.140231 1418.03653,382.273949 1417.15867,377.524195 C1406.37822,325.534578 1352.28562,266.116701 1233.54643,266.116701 C1226.44642,266.116701 1219.08553,266.328421 1211.65735,266.738732 C1180.18566,268.483372 1135.09646,275.284678 1087.34908,282.481523 C1072.44679,284.726742 1057.28524,287.016274 1042.20573,289.197485 L1032.84463,314.774597 C1007.87238,380.416063 982.44233,467.790854 985.569809,504.635091 C989.990286,556.572189 1015.5073,581.136655 1061.34473,577.824629 C1063.74202,577.658864 1065.86037,579.442893 1066.06548,581.853878 C1066.67752,589.137709 1062.78376,593.509977 1055.09961,594.166474 C993.618227,599.4086 958.141192,568.569666 952.778861,505.526286 C948.80798,458.754177 980.033547,370.877166 998.998608,322.662405 L1009.68061,294.605376 L948.739064,304.541454 L941.957389,323.60776 C913.519644,398.361401 892.027659,487.43816 889.673024,540.284505 C887.874642,580.652489 905.755094,608.269665 921.074163,624.288185 C944.100353,648.37505 977.624764,662.793359 1006.60399,660.667951 C1008.99145,660.503827 1011.11964,662.458546 1011.32803,664.867889 C1011.93679,672.155002 1008.04303,676.867008 1000.35888,677.513657 C996.537317,677.841905 992.628789,678.687145 988.733387,678.687145 L988.725183,678.687145 C950.686765,678.687145 914.628865,663.198746 889.796089,637.373806 C865.572072,612.185668 853.583948,577.263324 855.123075,537.665083 C855.881152,518.163848 859.000427,497.000035 863.438954,475.60973 L848.402112,495.365358 C837.762776,509.77382 800.352807,557.15483 767.197589,559.972842 C746.588386,561.78149 732.834697,549.724928 731.119999,529.536012 C730.678607,524.308657 731.014984,518.524921 732.125846,512.238965 C711.903887,536.268386 681.905683,565.329855 659.132186,567.26652 C658.334728,567.333811 657.540552,567.368277 656.757862,567.368277 C645.736205,567.368277 632.038305,560.773768 629.365344,529.343987 C622.880665,452.991777 703.960483,347.92604 773.957932,341.973256 C776.161607,341.784514 778.38005,341.68768 780.591929,341.68768 C804.185856,341.68768 820.292539,351.871586 821.633121,367.629148 C821.962934,371.512327 819.626349,375.416841 814.8777,378.93074 C811.331802,381.54852 807.077052,383.41133 804.034897,383.664081 L799.640674,384.036643 L798.890801,375.252717 C797.834087,362.808821 791.055694,357.013596 777.562902,357.013596 C776.097614,357.013596 774.681552,357.087452 773.352455,357.199057 C738.477615,360.168063 650.960703,485.823178 655.540344,539.752743 C656.193406,547.464938 659.337294,547.464938 661.02738,547.464938 C661.303044,547.464938 661.583631,547.451808 661.872422,547.430472 C677.079914,546.138815 715.590899,512.652558 751.366571,460.774545 C756.453237,450.648083 761.526776,441.517855 766.006324,433.459358 C775.572539,416.255861 783.127058,402.669661 783.801452,391.893267 L784.052503,387.827911 L788.717468,387.752414 C799.693181,387.752414 807.282159,393.534509 808.041877,402.490766 C809.398869,418.473179 796.56078,444.130712 782.969536,471.294905 C770.521971,496.169566 757.651065,521.897673 758.799667,535.401811 C759.22465,540.409239 761.807363,542.104642 767.537247,541.608987 C784.521789,540.166336 811.362978,517.397388 839.329797,480.709068 L872.785293,436.751689 C883.887352,395.892974 897.921628,357.376311 908.09496,331.513622 L916.932633,308.715132 L902.015574,309.982171 C891.45828,310.883213 881.142193,311.334554 871.361026,311.334554 C775.144274,311.339478 737.309323,267.905655 734.144104,230.70855 C731.134766,195.236391 759.231213,155.887618 811.459789,151.448059 C814.946616,151.147712 818.569636,151 822.230394,151 C850.302228,151 874.664077,159.570565 880.989593,162.574037 C884.581436,163.995353 886.673532,166.429314 886.942633,169.700309 C887.349567,174.436933 883.208036,177.688233 882.37612,178.295493 C881.081481,179.224435 879.394677,179.390201 877.963847,178.736987 C856.919817,169.178394 837.457576,167.171156 824.832798,167.171156 C821.583895,167.171156 818.397345,167.299172 815.356832,167.56013 C794.339055,169.347442 776.803184,176.24394 764.644411,187.520913 C753.671979,197.696612 748.242373,210.552459 749.363081,223.723425 C751.694743,251.163347 784.078757,283.198746 867.672373,283.198746 C877.425645,283.198746 887.753218,282.744122 898.367942,281.84308 C906.075062,281.183301 916.225422,280.32329 927.481722,278.865867 C939.018609,248.173004 949.416739,216.058826 951.891156,203.395004 C953.039758,196.326175 956.93516,192.802429 960.277592,192.520135 C960.40722,192.508647 960.663194,192.498799 960.784618,192.498799 C970.700335,192.498799 974.530102,218.850578 974.556356,219.121383 C975.004311,224.476755 975.142143,231.69986 972.145933,240.117789 L959.288153,274.964636 L1020.48403,266.078952 C1031.73869,233.644732 1040.45494,205.717361 1042.81285,194.489626 C1043.93356,187.473317 1047.84045,183.952853 1051.18288,183.667277 C1051.31087,183.654147 1051.56684,183.645941 1051.69155,183.645941 C1061.62203,183.645941 1065.43211,210.004285 1065.4518,210.273448 C1065.91124,215.617332 1066.05399,222.838796 1063.0545,231.269855 C1061.85996,233.961491 1060.56368,237.870929 1058.9261,242.822556 C1057.29344,247.759411 1055.20135,254.068345 1052.51034,261.319351 C1101.99211,253.265778 1151.27534,249.098665 1181.30801,246.556381 L1185.40031,246.210079 C1195.15522,245.379611 1205.38434,244.961094 1215.82021,244.961094 C1255.69311,244.961094 1293.26061,250.854793 1321.6081,261.562255 C1401.24232,291.639652 1417.72805,332.680545 1423.98136,364.418879 C1460.12623,304.830313 1523.04829,282.730992 1574.15123,264.811914 L1583.00203,261.691913 C1586.22796,260.518425 1589.36365,259.628872 1591.71336,260.853238 C1594.80802,262.469862 1595.53164,265.038405 1596.30777,267.769431 L1596.68024,269.052883 C1598.30634,274.464057 1599.4894,280.013095 1600.20153,285.667173 C1600.41812,286.212066 1600.56416,287.088489 1600.58877,288.80851 L1600.60682,289.712835 L1600.57893,289.712835 C1607.20964,386.546102 1534.51134,445.213932 1454.36845,494.063853 Z M245.089747,671.037799 C322.881711,638.784099 419.268739,538.991046 387.278816,462.091194 C384.158367,454.583191 380.524115,448.403301 376.214066,443.291782 L375.577541,443.63647 C292.020845,488.952397 118.156025,583.254937 146.783324,652.06686 C155.153066,672.196018 171.571832,682.399453 195.586364,682.399453 L195.588,682.399453 C210.249366,682.399453 226.903762,678.57684 245.089747,671.037799 Z M374.743021,587.644407 C340.670072,631.77761 289.127843,671.787619 240.233169,692.060534 C217.912221,701.313216 197.671027,706 180.069206,706 C152.057161,706 132.202137,693.860755 122.647704,670.894043 C89.2194626,590.542404 242.949449,496.718507 364.730421,432.060816 C341.741857,413.645299 308.118894,407.952221 275.531717,402.430669 C228.739705,394.504466 180.352288,386.300552 161.344875,340.605632 C136.989989,282.064121 156.015403,232.34729 176.266414,200.954494 C201.089285,162.468629 242.191836,129.257642 289.031301,109.834197 C315.596845,98.8237663 342.54365,93 366.950898,93 C413.459827,93 447.727497,113.797298 463.439376,151.559481 C490.780533,217.293711 439.416663,266.049989 382.225881,289.759987 C359.513854,299.174395 333.455567,300.192125 323.305516,300.192125 C306.343494,300.192125 305.517156,298.217108 304.645001,296.129374 C303.87757,294.276877 303.835026,292.269189 304.532095,290.604555 C305.152258,289.114717 306.318949,287.956498 307.814539,287.3439 C308.811054,286.927333 309.951564,286.450323 312.355309,286.638187 C315.490485,286.935501 318.606025,287.082525 321.721565,287.082525 C338.137059,287.082525 355.498342,283.1864 374.801928,275.17525 C403.344139,263.348022 424.23004,247.018606 435.20152,227.961087 C446.791526,207.827028 447.462415,185.095553 437.188004,160.405398 C424.612937,130.170821 396.252358,113.519587 357.331012,113.519587 C335.764405,113.519587 311.988774,118.652343 288.574769,128.362432 C210.776259,160.609597 149.802322,236.013077 183.78691,317.723866 C199.821143,356.265274 242.000387,363.881094 286.65701,371.936351 C327.654837,379.336537 370.045166,386.988296 395.795826,419.237095 C398.623375,422.775462 398.719918,422.893081 399.361353,423.631466 L400.150056,424.59202 C403.915212,430.182182 407.056933,436.066391 409.771577,442.582802 C427.149223,484.365262 414.708334,535.883948 374.743021,587.644407 Z M654.741396,143.890087 C614.146873,147.322838 577.719773,235.362502 552.539121,307.958877 C621.869445,252.158284 646.363756,212.872181 654.570223,189.341731 C661.399069,168.854802 662.25823,157.782996 661.772689,152.112988 C661.064951,143.844295 657.899882,143.844295 655.806295,143.844295 C655.462301,143.844295 655.108432,143.857379 654.741396,143.890087 Z M402,409.544741 L407.029876,406.568273 C445.494602,383.79993 480.292259,361.325963 510.478099,339.767832 C541.449034,250.318435 590.146332,131.698017 656.387298,126.111416 C669.939654,124.937183 678.539491,133.097938 679.821649,148.063684 C680.804252,159.560699 677.723124,175.069405 670.667143,194.16459 C663.33465,213.868152 636.200312,267.187811 542.479369,337.80042 C534.500037,362.099518 527.065498,386.094427 519.876199,409.304334 L514.856198,426.09521 C510.99985,439.571086 507.069436,453.318442 503.264111,467.196632 C504.271403,465.423834 505.290217,463.626506 506.318905,461.811188 C532.684607,415.271988 565.498952,357.35843 603.634498,354.14319 C604.845882,354.040159 606.001305,353.987825 607.110643,353.987825 C620.174166,353.987825 627.67454,360.931826 628.792108,374.064264 C630.492324,393.923191 619.377549,419.419418 607.612643,446.408785 C593.997743,477.645342 578.564121,513.047319 581.242003,544.33948 C583.218731,567.459439 594.799297,606.246739 650.154268,606.246739 C651.594432,606.246739 653.064222,606.217301 654.555409,606.166603 L658.768918,606.012873 L659.127725,610.184834 C659.749876,617.446107 655.847442,621.806142 648.129809,622.460311 C643.876798,622.821739 639.674811,623 635.635768,623 C584.751066,623 551.882406,593.948366 547.718274,545.284754 C545.116104,514.831564 560.350571,478.165406 573.794297,445.818397 C584.996305,418.869916 595.576163,393.404763 594.117893,376.360396 C594.032307,375.351341 593.923677,374.059358 593.7739,373.307064 C593.467762,373.287438 593.04312,373.303793 592.595434,373.343043 C588.102122,373.725732 574.131707,380.197096 541.583998,431.940208 C529.343426,450.938903 509.459286,485.573867 496.953724,508.533554 C496.288779,509.823902 495.260091,511.992471 493.959828,514.717084 C478.569,547.006853 462.103398,577.077355 445.971914,578.438026 C441.259697,578.873048 438.167047,576.151706 437.778614,571.567618 C437.498811,568.318035 440.344575,559.329757 448.554334,534.469709 C452.280656,523.172215 456.507332,510.370133 459.804073,499.445515 C464.394493,484.896802 468.979976,469.749525 473.702068,454.155778 C482.26405,425.867886 491.095959,396.700138 501.112918,367.090825 C474.957891,384.540776 446.090419,401.993998 415.134297,419.074344 L411.38987,421.139882 L409.192591,417.492891 C407.959811,415.455155 407.426538,414.647257 406.25301,413.543347 L402,409.544741 Z M1274.18374,305.3721 C1335.32065,324.429228 1378.52112,362.083387 1402.57818,417.250653 C1437.55407,497.462838 1420.8988,588.5061 1402.1808,627.028056 C1361.49321,710.791656 1263.77605,766.618774 1140.78333,776.315166 C1127.17023,777.389268 1113.0295,778 1098.75026,778 L1098.73377,778 C1012.16299,778 925.687854,758.237174 842.063615,739.183321 C830.574269,736.571746 819.114602,733.897952 807.686264,731.342047 C758.531714,720.366884 701.243273,708.144059 643.351345,701.953235 C628.359793,700.348631 612.596568,699.531593 596.498621,699.531593 C562.393334,699.531593 525.946647,703.002777 481.798075,710.446175 C436.991602,718.010736 393.805972,730.801722 353.441563,748.467101 C342.090722,753.433186 332.372265,758.377986 324.564852,762.346925 C314.36987,767.527503 307.635873,770.956116 304.176538,770.956116 C303.126206,770.956116 302.311663,770.648294 301.755993,770.044112 C301.162398,769.400633 300.918365,768.470617 301.023893,767.265527 L301.070062,766.759586 L301.490524,766.464863 C320.894461,752.919058 342.056096,740.616003 364.386781,729.899541 C409.001985,708.476441 457.917448,693.286737 509.774502,684.744677 C537.525033,680.178105 565.92522,677.95622 596.594256,677.95622 C677.103774,677.95622 756.663541,693.465208 837.870532,710.740898 L855.35518,714.467509 C903.926029,724.846676 954.152347,735.579512 1004.15936,742.76912 C1041.55415,748.137993 1074.37167,750.751206 1104.50482,750.751206 C1127.08779,750.751206 1148.88094,749.251392 1169.2775,746.302523 C1257.12285,733.577031 1369.95028,680.901814 1398.8072,574.290619 C1414.4682,516.426637 1413.75589,435.695411 1364.79755,382.637054 C1333.54481,348.784823 1300.17163,338.774059 1274.32224,334.002819 C1269.75157,389.263413 1294.68088,439.872294 1350.50017,488.662077 L1351.28833,489.349764 C1355.35116,492.874981 1358.85831,495.922091 1358.0685,501.10267 C1357.66618,503.746991 1356.59606,505.900108 1352.50026,508.438002 C1290.67247,546.851892 1232.72118,590.814765 1227.40522,651.905966 C1226.66982,656.695218 1226.37467,661.469733 1226.53131,666.183667 C1269.31792,652.662422 1306.09438,629.400578 1330.18441,600.588113 C1331.97838,598.444821 1333.22163,597.572113 1334.47148,597.572113 C1335.00901,597.572113 1335.44102,597.74076 1335.72462,597.87011 C1336.25556,598.105889 1336.67767,598.621654 1336.88708,599.283144 C1337.28611,600.530806 1336.91346,602.115761 1335.78233,604.003627 C1313.08725,641.947598 1270.02693,674.431003 1223.4001,688.777472 L1222.82794,688.962493 C1221.49895,689.411127 1219.0174,690.246176 1216.46824,690.246176 C1215.08649,690.246176 1213.83994,689.995661 1212.76982,689.509368 C1210.25199,688.361585 1208.52727,685.89246 1207.51156,681.969367 C1187.47116,604.611084 1268.70289,536.597163 1345.06054,501.438326 C1290.82746,459.669504 1233.68742,387.149593 1249.11428,318.303898 C1250.51582,312.062316 1253.17545,307.818302 1257.02887,305.694658 C1259.06357,304.573073 1261.73145,304 1264.9484,304 C1268.51986,304 1272.06164,304.71061 1274.18374,305.3721 Z" id="logo"></path>
            </g>
        </g>
    </g>
</svg>