2018-01-19 02:39:25 4.47% gram_eth gram_rur
2018-01-19 02:39:31 4.47% gram_eth gram_rur
2018-01-19 02:41:15 4.06% dgb_eth dgb_rur
2018-01-19 02:41:19 4.06% dgb_eth dgb_rur
2018-01-19 02:41:21 4.06% dgb_eth dgb_rur
2018-01-19 03:16:15 3.26% eos_eth eos_rur
2018-01-19 03:27:47 2.15% ltc_eth ltc_rur
2018-01-19 03:27:49 2.15% ltc_eth ltc_rur
2018-01-19 03:27:50 2.15% ltc_eth ltc_rur
2018-01-19 03:27:52 2.15% ltc_eth ltc_rur
2018-01-19 03:27:54 2.15% ltc_eth ltc_rur
2018-01-19 03:35:04 5.76% gram_eth gram_rur
2018-01-19 03:35:10 5.76% gram_eth gram_rur
2018-01-19 03:35:11 5.76% gram_eth gram_rur
2018-01-19 03:47:18 3.49% linda_eth linda_rur
2018-01-19 03:47:20 3.49% linda_eth linda_rur
2018-01-19 03:47:21 3.49% linda_eth linda_rur
2018-01-19 03:47:23 3.49% linda_eth linda_rur
2018-01-19 03:47:25 3.49% linda_eth linda_rur
2018-01-19 03:47:33 3.98% linda_eth linda_rur
2018-01-19 03:47:41 3.98% linda_eth linda_rur
2018-01-19 03:47:43 3.98% linda_eth linda_rur
2018-01-19 03:47:53 3.98% linda_eth linda_rur
2018-01-19 03:47:56 3.98% linda_eth linda_rur
2018-01-19 04:24:40 2.54% liza_eth liza_rur
2018-01-19 04:24:43 2.54% liza_eth liza_rur
2018-01-19 04:24:45 2.54% liza_eth liza_rur
2018-01-19 04:24:47 2.54% liza_eth liza_rur
2018-01-19 04:24:49 2.54% liza_eth liza_rur
2018-01-19 04:36:28 4.77% pac_eth pac_rur
2018-01-19 04:36:29 4.77% pac_eth pac_rur
2018-01-19 04:36:35 4.77% pac_eth pac_rur
2018-01-19 04:36:36 4.77% pac_eth pac_rur
2018-01-19 04:36:39 4.77% pac_eth pac_rur
2018-01-19 04:36:40 4.77% pac_eth pac_rur
2018-01-19 04:36:43 4.77% pac_eth pac_rur
2018-01-19 04:36:44 4.77% pac_eth pac_rur
2018-01-19 04:36:48 4.77% pac_eth pac_rur
2018-01-19 04:36:50 4.77% pac_eth pac_rur
2018-01-19 04:36:52 4.77% pac_eth pac_rur
2018-01-19 04:36:55 4.77% pac_eth pac_rur
2018-01-19 04:36:57 4.77% pac_eth pac_rur
2018-01-19 04:37:04 4.77% pac_eth pac_rur
2018-01-19 04:37:06 4.77% pac_eth pac_rur
2018-01-19 04:37:09 4.77% pac_eth pac_rur
2018-01-19 04:37:10 4.77% pac_eth pac_rur
2018-01-19 04:37:12 4.77% pac_eth pac_rur
2018-01-19 04:37:16 4.77% pac_eth pac_rur
2018-01-19 04:37:21 4.77% pac_eth pac_rur
2018-01-19 04:37:23 4.77% pac_eth pac_rur
2018-01-19 04:37:25 4.77% pac_eth pac_rur
2018-01-19 04:37:27 4.77% pac_eth pac_rur
2018-01-19 04:37:29 4.77% pac_eth pac_rur
2018-01-19 04:37:33 4.77% pac_eth pac_rur
2018-01-19 04:37:35 4.77% pac_eth pac_rur
2018-01-19 04:37:37 4.77% pac_eth pac_rur
2018-01-19 04:37:39 4.77% pac_eth pac_rur
2018-01-19 04:37:40 4.77% pac_eth pac_rur
2018-01-19 04:42:38 2.75% ecash_eth ecash_rur
2018-01-19 04:42:40 2.75% ecash_eth ecash_rur
2018-01-19 04:42:42 2.75% ecash_eth ecash_rur
2018-01-19 04:42:44 2.75% ecash_eth ecash_rur
2018-01-19 04:42:45 2.75% ecash_eth ecash_rur
2018-01-19 04:42:48 2.75% ecash_eth ecash_rur
2018-01-19 04:55:51 6.51% gram_eth gram_rur
2018-01-19 04:55:54 6.51% gram_eth gram_rur
2018-01-19 04:55:56 6.51% gram_eth gram_rur
2018-01-19 06:32:44 2.56% liza_eth liza_rur
2018-01-19 06:32:47 2.56% liza_eth liza_rur
2018-01-19 06:32:49 2.56% liza_eth liza_rur
2018-01-19 06:32:50 2.56% liza_eth liza_rur
2018-01-19 06:32:52 2.56% liza_eth liza_rur
2018-01-19 06:34:54 2.17% liza_eth liza_rur
2018-01-19 06:34:56 2.17% liza_eth liza_rur
2018-01-19 07:20:25 2.92% bcc_eth bcc_rur
2018-01-19 07:20:27 2.92% bcc_eth bcc_rur
2018-01-19 07:20:32 2.92% bcc_eth bcc_rur
2018-01-19 07:20:33 2.92% bcc_eth bcc_rur
2018-01-19 07:20:35 2.92% bcc_eth bcc_rur
